{
	"info": {
		"_postman_id": "0a4fc0eb-091a-492e-83f7-8f94c3a822cf",
		"name": "TPWeb",
		"schema": "https://schema.getpostman.com/json/collection/v2.1.0/collection.json"
	},
	"item": [
		{
			"name": "Post Individual",
			"request": {
				"method": "POST",
				"header": [],
				"body": {
					"mode": "raw",
					"raw": "{\n    \"nif\": \"234\",\n    \"option\": \"2\"\n}",
					"options": {
						"raw": {
							"language": "json"
						}
					}
				},
				"url": {
					"raw": "http://localhost:3000/api/individuals",
					"protocol": "http",
					"host": [
						"localhost"
					],
					"port": "3000",
					"path": [
						"api",
						"individuals"
					],
					"query": [
						{
							"key": "nif",
							"value": null,
							"disabled": true
						},
						{
							"key": "option",
							"value": null,
							"disabled": true
						}
					]
				}
			},
			"response": []
		},
		{
			"name": "delete individual",
			"request": {
				"method": "DELETE",
				"header": [],
				"url": {
					"raw": "http://localhost:3000/api/individuals/5ebf39c14facb7449826c440",
					"protocol": "http",
					"host": [
						"localhost"
					],
					"port": "3000",
					"path": [
						"api",
						"individuals",
						"5ebf39c14facb7449826c440"
					]
				}
			},
			"response": []
		},
		{
			"name": "get all individual",
			"request": {
				"method": "PUT",
				"header": [],
				"body": {
					"mode": "raw",
					"raw": "{\r\n\t\"_id\": \"5ed31b6d352aea55fceb10f7\",\r\n    \"nif\": \"45634566354\",\r\n    \"option\": \"3\"\r\n}",
					"options": {
						"raw": {
							"language": "json"
						}
					}
				},
				"url": {
					"raw": "http://localhost:3000/api/individuals/5ed31b6d352aea55fceb10f7",
					"protocol": "http",
					"host": [
						"localhost"
					],
					"port": "3000",
					"path": [
						"api",
						"individuals",
						"5ed31b6d352aea55fceb10f7"
					]
				}
			},
			"response": []
		},
		{
			"name": "Post instituicoes",
			"request": {
				"method": "POST",
				"header": [],
				"body": {
					"mode": "raw",
					"raw": "{\n\t\"nif\":\"123456789\",\n\t\"elementsList\":[{\"nif\":\"123123123\", \"option\":\"option1\"}]\n}",
					"options": {
						"raw": {
							"language": "json"
						}
					}
				},
				"url": {
					"raw": "http://localhost:3000/api/instituicoes",
					"protocol": "http",
					"host": [
						"localhost"
					],
					"port": "3000",
					"path": [
						"api",
						"instituicoes"
					]
				}
			},
			"response": []
		},
		{
			"name": "Get Instituicoes",
			"request": {
				"method": "GET",
				"header": [],
				"url": {
					"raw": "http://localhost:3000/api/instituicoes",
					"protocol": "http",
					"host": [
						"localhost"
					],
					"port": "3000",
					"path": [
						"api",
						"instituicoes"
					]
				}
			},
			"response": []
		}
	],
	"protocolProfileBehavior": {}
}